{
  "programmers": [
    {
      "name": "Leonid",
      "lang": [
        "Python",
        "JS",
        "PHP"
      ],
      "birthday": {
        "value": "2000/02/03",
        "__data__": true
      }
    }
  ]
}